2687-1653
1997-9347
2307-8162
2782-3210
2414-9187
2414-925X
1819-5962
2658-6436
2782-604X
1684-6435
1998-0663
2410-3225
1729-6501
1995-5499
1810-7206
0236-3933
2224-669Х
2304-487Х
1818-7900
1995-4565
1998-6920
2311-2395
2411-7978
2712-7451
1812-3228
2307-1656
1726-3522
1992-7185
2075-4440
1818-0442
1026-8634
0204-3327
2305-8404
2223-1501
1999-9429
2073-3909
2713-3192
2078-8320
0234-0453
1814-2400
1606-1330
2070-0814
2409-1650
1684-8853
2413-0133
1684-6400
2071-8632
2072-9804
2071-8594
2071-2340
2500-1833
2219-3758
2313-5417
2073-7173
1729-2646
2409-5419
2226-1494
2079-5920
2310-6018
1999-8554
2587-7755
1028-7493
2071-7865
0032-8162
2074-1707
2071-0410
2687-0959
2071-8217
1997-9258
0236-235Х
2305-6061
1561-1531
0033-8486
2221-2574
2310-5305
2078-7707
2782-2001
2311-0325
1729-5068
2410-9916
1812-7320
2220-6426
1727-6942
2222-5064
1819-2467
1562-5419
2949-0529
2304-1943
